[
  {
    "name": "AXE",
    "ingredient": [
      {
        "item": "minecraft:wooden_axe",
        "data": 32767
      },
      {
        "item": "minecraft:stone_axe",
        "data": 32767
      },
      {
        "item": "minecraft:iron_axe",
        "data": 32767
      },
      {
        "item": "minecraft:golden_axe",
        "data": 32767
      },
      {
        "item": "minecraft:diamond_axe",
        "data": 32767
      }
    ]
  }
]