{
  "conditions": [
    {
      "type": "is_recipe_allowed",
      "recipe_name": "wood_specific_basket"
    },
    {
      "type": "is_recipe_allowed",
      "recipe_name": "small_basket"
    }
  ],
  "type": "forge:ore_shaped",
  "pattern": [
    "WW",
    "WW"
  ],
  "key": {
    "W": {
      "item": "basketcase:wicker_small_bark_jungle"
    }
  },
  "result": {
    "item": "basketcase:basket_small_bark_jungle"
  }
}