{
  "conditions": [
    {
      "type": "is_recipe_allowed",
      "recipe_name": "wood_specific_basket"
    },
    {
      "type": "is_recipe_allowed",
      "recipe_name": "medium_basket"
    }
  ],
  "type": "forge:ore_shaped",
  "pattern": [
    "BWB",
    "WWW",
    "BWB"
  ],
  "key": {
    "B": {
      "item": "basketcase:bark_strips_dark_oak"
    },
    "W": {
      "item": "basketcase:wicker_medium_bark_dark_oak"
    }
  },
  "result": {
    "item": "basketcase:basket_medium_bark_dark_oak"
  }
}
