{
  "conditions": [
    {
      "type": "is_recipe_allowed",
      "recipe_name": "generic_basket"
    },
    {
      "type": "is_recipe_allowed",
      "recipe_name": "large_basket"
    }
  ],
  "type": "forge:ore_shaped",
  "pattern": [
    "VVV",
    "VVV",
    "VVV"
  ],
  "key": {
    "V": {
      "item": "minecraft:vine"
    }
  },
  "result": {
    "item": "basketcase:wicker_large_generic"
  }
}