{
  "conditions": [
    {
      "type": "is_recipe_allowed",
      "recipe_name": "generic_basket"
    },
    {
      "type": "is_recipe_allowed",
      "recipe_name": "small_basket"
    }
  ],
  "type": "forge:ore_shaped",
  "pattern": [
    "VV",
    "VV"
  ],
  "key": {
    "V": {
      "type": "forge:ore_dict",
      "ore": "vine"
    }
  },
  "result": {
    "item": "basketcase:wicker_small_generic"
  }
}