{
  "conditions": [
    {
      "type": "is_recipe_allowed",
      "recipe_name": "wood_specific_basket"
    },
    {
      "type": "is_recipe_allowed",
      "recipe_name": "medium_basket"
    }
  ],
  "type": "forge:ore_shaped",
  "pattern": [
    "TCT",
    "CTC"
  ],
  "key": {
    "C": {
      "type": "forge:ore_dict",
      "ore": "cordage"
    },
    "T": {
      "item": "basketcase:twig_jungle"
    }
  },
  "result": {
    "item": "basketcase:wicker_medium_twig_jungle"
  }
}