{
  "credit": "Display made with Blockbench, elements made with MrCrayfish's Model Creator",
  "parent": "basketcase:block/basket",
  "display": {
    "thirdperson_righthand": {
      "rotation": [-107, 90, 179],
      "translation": [0, 1.5, -2.5],
      "scale": [0.55, 0.55, 0.55]
    },
    "thirdperson_lefthand": {
      "rotation": [-107, 90, 179],
      "translation": [0, 1.5, -2.5],
      "scale": [0.55, 0.55, 0.55]
    },
    "firstperson_righthand": {
      "rotation": [180, 90, 180]
    },
    "firstperson_lefthand": {
      "rotation": [180, 90, 180]
    },
    "fixed": {
      "rotation": [0, -90, 0],
      "translation": [0, 0, 1.5]
    }
  },
  "elements": [
    {
      "name": "Floor",
      "from": [4, 0, 4],
      "to": [12, 1, 12],
      "faces": {
        "north": {"uv": [1, 1, 9, 2], "texture": "#0"},
        "east": {"uv": [3, 1, 11, 2], "texture": "#0"},
        "south": {"uv": [6, 3, 14, 4], "texture": "#0"},
        "west": {"uv": [0, 4, 8, 5], "texture": "#0"},
        "up": {"uv": [1, 8, 9, 16], "texture": "#0"},
        "down": {"uv": [1, 8, 9, 16], "texture": "#0"}
      }
    },
    {
      "name": "Bottom, west side",
      "from": [3, 0, 3],
      "to": [4, 2, 13],
      "faces": {
        "north": {"uv": [0, 0, 1, 2], "texture": "#0"},
        "east": {"uv": [0, 0, 10, 2], "texture": "#0"},
        "south": {"uv": [0, 0, 1, 2], "texture": "#0"},
        "west": {"uv": [0, 0, 10, 2], "texture": "#0"},
        "up": {"uv": [0, 0, 1, 10], "texture": "#0"},
        "down": {"uv": [0, 0, 1, 10], "texture": "#0"}
      }
    },
    {
      "name": "Bottom, east side",
      "from": [12, 0, 3],
      "to": [13, 2, 13],
      "faces": {
        "north": {"uv": [0, 0, 1, 2], "texture": "#0"},
        "east": {"uv": [0, 11, 10, 13], "texture": "#0"},
        "south": {"uv": [0, 0, 1, 2], "texture": "#0"},
        "west": {"uv": [5, 11, 15, 13], "texture": "#0"},
        "up": {"uv": [4, 4, 5, 14], "texture": "#0"},
        "down": {"uv": [0, 0, 1, 10], "texture": "#0"}
      }
    },
    {
      "name": "Bottom, north side",
      "from": [4, 0, 3],
      "to": [12, 2, 4],
      "faces": {
        "north": {"uv": [2, 11, 10, 13], "texture": "#0"},
        "east": {"uv": [0, 0, 1, 2], "texture": "#0"},
        "south": {"uv": [6, 11, 14, 13], "texture": "#0"},
        "west": {"uv": [0, 0, 1, 2], "texture": "#0"},
        "up": {"uv": [6, 11, 14, 12], "texture": "#0"},
        "down": {"uv": [6, 12, 14, 13], "texture": "#0"}
      }
    },
    {
      "name": "Bottom, south side",
      "from": [4, 0, 12],
      "to": [12, 2, 13],
      "faces": {
        "north": {"uv": [0, 5, 8, 7], "texture": "#0"},
        "east": {"uv": [0, 0, 1, 2], "texture": "#0"},
        "south": {"uv": [6, 5, 14, 7], "texture": "#0"},
        "west": {"uv": [0, 0, 1, 2], "texture": "#0"},
        "up": {"uv": [0, 0, 8, 1], "texture": "#0"},
        "down": {"uv": [0, 0, 8, 1], "texture": "#0"}
      }
    },
    {
      "name": "Middle, west side",
      "from": [2, 2, 2],
      "to": [3, 5, 14],
      "faces": {
        "north": {"uv": [0, 0, 1, 3], "texture": "#0"},
        "east": {"uv": [0, 0, 12, 3], "texture": "#0"},
        "south": {"uv": [0, 0, 1, 3], "texture": "#0"},
        "west": {"uv": [0, 0, 12, 3], "texture": "#0"},
        "up": {"uv": [0, 0, 1, 12], "texture": "#0"},
        "down": {"uv": [0, 0, 1, 12], "texture": "#0"}
      }
    },
    {
      "name": "Middle, east side",
      "from": [13, 2, 2],
      "to": [14, 5, 14],
      "faces": {
        "north": {"uv": [9, 8, 10, 11], "texture": "#0"},
        "east": {"uv": [4, 11, 16, 14], "texture": "#0"},
        "south": {"uv": [1, 1, 2, 4], "texture": "#0"},
        "west": {"uv": [1, 11, 13, 14], "texture": "#0"},
        "up": {"uv": [0, 3, 1, 15], "texture": "#0"},
        "down": {"uv": [0, 0, 1, 12], "texture": "#0"}
      }
    },
    {
      "name": "Middle, north side",
      "from": [3, 2, 2],
      "to": [13, 5, 3],
      "faces": {
        "north": {"uv": [1, 5, 11, 8], "texture": "#0"},
        "east": {"uv": [0, 0, 1, 5], "texture": "#0"},
        "south": {"uv": [6, 5, 16, 8], "texture": "#0"},
        "west": {"uv": [0, 0, 1, 5], "texture": "#0"},
        "up": {"uv": [6, 5, 16, 6], "texture": "#0"},
        "down": {"uv": [6, 10, 16, 11], "texture": "#0"}
      }
    },
    {
      "name": "Middle, south side",
      "from": [3, 2, 13],
      "to": [13, 5, 14],
      "faces": {
        "north": {"uv": [6, 8, 16, 11], "texture": "#0"},
        "east": {"uv": [0, 0, 1, 3], "texture": "#0"},
        "south": {"uv": [2, 13, 12, 10], "texture": "#0"},
        "west": {"uv": [0, 0, 1, 4], "texture": "#0"},
        "up": {"uv": [6, 8, 16, 9], "texture": "#0"},
        "down": {"uv": [2, 13, 12, 14], "texture": "#0"}
      }
    },
    {
      "name": "Top, west side",
      "from": [1, 5, 1],
      "to": [2, 9, 15],
      "faces": {
        "north": {"uv": [0, 0, 1, 4], "texture": "#0"},
        "east": {"uv": [0, 3, 14, 7], "texture": "#0"},
        "south": {"uv": [0, 0, 1, 4], "texture": "#0"},
        "west": {"uv": [2, 3, 16, 7], "texture": "#0"},
        "up": {"uv": [2, 3, 16, 4], "rotation": 90, "texture": "#0"},
        "down": {"uv": [0, 0, 1, 14], "texture": "#0"}
      }
    },
    {
      "name": "Top, east side",
      "from": [14, 5, 1],
      "to": [15, 9, 15],
      "faces": {
        "north": {"uv": [0, 0, 1, 4], "texture": "#0"},
        "east": {"uv": [0, 1, 14, 5], "texture": "#0"},
        "south": {"uv": [0, 0, 1, 4], "texture": "#0"},
        "west": {"uv": [2, 1, 16, 5], "texture": "#0"},
        "up": {"uv": [0, 1, 14, 2], "rotation": 270, "texture": "#0"},
        "down": {"uv": [0, 0, 1, 14], "texture": "#0"}
      }
    },
    {
      "name": "Top, north side",
      "from": [2, 5, 1],
      "to": [14, 9, 2],
      "faces": {
        "north": {"uv": [4, 12, 16, 16], "texture": "#0"},
        "east": {"uv": [0, 0, 1, 7], "texture": "#0"},
        "south": {"uv": [0, 12, 12, 16], "texture": "#0"},
        "west": {"uv": [0, 7, 1, 14], "texture": "#0"},
        "up": {"uv": [3, 3, 15, 4], "texture": "#0"},
        "down": {"uv": [3, 9, 15, 10], "texture": "#0"}
      }
    },
    {
      "name": "Top, south side",
      "from": [2, 5, 14],
      "to": [14, 9, 15],
      "faces": {
        "north": {"uv": [1, 10, 13, 14], "texture": "#0"},
        "east": {"uv": [0, 0, 1, 7], "texture": "#0"},
        "south": {"uv": [4, 10, 16, 14], "texture": "#0"},
        "west": {"uv": [0, 0, 1, 7], "texture": "#0"},
        "up": {"uv": [4, 10, 16, 11], "texture": "#0"},
        "down": {"uv": [1, 13, 13, 14], "texture": "#0"}
      }
    },
    {
      "name": "West Handle, NW side",
      "from": [1, 9, 5],
      "to": [2, 11, 6],
      "faces": {
        "north": {"uv": [1, 3, 2, 5], "texture": "#0"},
        "east": {"uv": [1, 3, 2, 5], "texture": "#0"},
        "south": {"uv": [1, 3, 2, 5], "texture": "#0"},
        "west": {"uv": [1, 3, 2, 5], "texture": "#0"},
        "up": {"uv": [3, 5, 4, 6], "texture": "#0"},
        "down": {"uv": [0, 0, 1, 1], "texture": "#0"}
      }
    },
    {
      "name": "West Handle, SW side",
      "from": [1, 9, 10],
      "to": [2, 11, 11],
      "faces": {
        "north": {"uv": [1, 3, 2, 5], "texture": "#0"},
        "east": {"uv": [1, 3, 2, 5], "texture": "#0"},
        "south": {"uv": [1, 3, 2, 5], "texture": "#0"},
        "west": {"uv": [1, 3, 2, 5], "texture": "#0"},
        "up": {"uv": [3, 3, 4, 4], "texture": "#0"},
        "down": {"uv": [0, 0, 1, 1], "texture": "#0"}
      }
    },
    {
      "name": "West Handle, top",
      "from": [1, 11, 6],
      "to": [2, 12, 10],
      "faces": {
        "north": {"uv": [1, 0, 2, 1], "texture": "#0"},
        "east": {"uv": [4, 12, 8, 13], "texture": "#0"},
        "south": {"uv": [1, 0, 2, 1], "texture": "#0"},
        "west": {"uv": [4, 12, 8, 13], "texture": "#0"},
        "up": {"uv": [0, 5, 4, 6], "rotation": 90, "texture": "#0"},
        "down": {"uv": [14, 0, 13, 4], "texture": "#0"}
      }
    },
    {
      "name": "East Handle, NE side",
      "from": [14, 9, 5],
      "to": [15, 11, 6],
      "faces": {
        "north": {"uv": [1, 3, 2, 5], "texture": "#0"},
        "east": {"uv": [1, 3, 2, 5], "texture": "#0"},
        "south": {"uv": [1, 3, 2, 5], "texture": "#0"},
        "west": {"uv": [1, 3, 2, 4], "texture": "#0"},
        "up": {"uv": [1, 5, 2, 6], "texture": "#0"},
        "down": {"uv": [0, 0, 1, 1], "texture": "#0"}
      }
    },
    {
      "name": "East Handle, SE side",
      "from": [14, 9, 10],
      "to": [15, 11, 11],
      "faces": {
        "north": {"uv": [1, 3, 2, 5], "texture": "#0"},
        "east": {"uv": [1, 3, 2, 5], "texture": "#0"},
        "south": {"uv": [1, 3, 2, 5], "texture": "#0"},
        "west": {"uv": [1, 3, 2, 5], "texture": "#0"},
        "up": {"uv": [1, 6, 2, 7], "texture": "#0"},
        "down": {"uv": [0, 0, 1, 1], "texture": "#0"}
      }
    },
    {
      "name": "East Handle, top",
      "from": [14, 11, 6],
      "to": [15, 12, 10],
      "faces": {
        "north": {"uv": [3, 0, 4, 1], "texture": "#0"},
        "east": {"uv": [0, 13, 4, 14], "texture": "#0"},
        "south": {"uv": [3, 0, 4, 1], "texture": "#0"},
        "west": {"uv": [0, 3, 4, 4], "texture": "#0"},
        "up": {"uv": [9, 10, 13, 11], "rotation": 90, "texture": "#0"},
        "down": {"uv": [7, 6, 3, 7], "rotation": 90, "texture": "#0"}
      }
    }
  ]
}