{
  "parent": "minecraft:recipes/root",
  "rewards": {
    "recipes": [
      "basketcase:basket_large_twig_dark_oak"
    ]
  },
  "criteria": {
    "has_item": {
      "trigger": "minecraft:inventory_changed",
      "conditions": {
        "items": [
          {
            "item": "basketcase:wicker_large_twig_dark_oak"
          }
        ]
      }
    },
    "has_basket_large_twig_dark_oak_recipe": {
      "trigger": "minecraft:recipe_unlocked",
      "conditions": {
        "recipe": "basketcase:basket_large_twig_dark_oak"
      }
    }
  },
  "requirements": [
    [
      "has_item",
      "has_basket_large_twig_dark_oak_recipe"
    ]
  ]
}