{
  "parent": "minecraft:recipes/root",
  "rewards": {
    "recipes": [
      "basketcase:wicker_large_twig_acacia",
      "basketcase:wicker_medium_twig_acacia",
      "basketcase:wicker_small_twig_acacia"
    ]
  },
  "criteria": {
    "has_item": {
      "trigger": "minecraft:inventory_changed",
      "conditions": {
        "items": [
          {
            "item": "basketcase:twig_acacia"
          }
        ]
      }
    },
    "has_large_twig_acacia_recipe": {
      "trigger": "minecraft:recipe_unlocked",
      "conditions": {
        "recipe": "basketcase:wicker_large_twig_acacia"
      }
    },
    "has_medium_twig_acacia_recipe": {
      "trigger": "minecraft:recipe_unlocked",
      "conditions": {
        "recipe": "basketcase:wicker_medium_twig_acacia"
      }
    },
    "has_small_twig_acacia_recipe": {
      "trigger": "minecraft:recipe_unlocked",
      "conditions": {
        "recipe": "basketcase:wicker_small_twig_acacia"
      }
    }
  },
  "requirements": [
    [
      "has_item",
      "has_large_twig_acacia_recipe",
      "has_medium_twig_acacia_recipe",
      "has_small_twig_acacia_recipe"
    ]
  ]
}