{
  "parent": "minecraft:recipes/root",
  "rewards": {
    "recipes": [
      "basketcase:wicker_large_bark_birch",
      "basketcase:wicker_medium_bark_birch",
      "basketcase:wicker_small_bark_birch"
    ]
  },
  "criteria": {
    "has_item": {
      "trigger": "minecraft:inventory_changed",
      "conditions": {
        "items": [
          {
            "item": "basketcase:bark_strips_birch"
          }
        ]
      }
    },
    "has_large_bark_birch_recipe": {
      "trigger": "minecraft:recipe_unlocked",
      "conditions": {
        "recipe": "basketcase:wicker_large_bark_birch"
      }
    },
    "has_medium_bark_birch_recipe": {
      "trigger": "minecraft:recipe_unlocked",
      "conditions": {
        "recipe": "basketcase:wicker_medium_bark_birch"
      }
    },
    "has_small_bark_birch_recipe": {
      "trigger": "minecraft:recipe_unlocked",
      "conditions": {
        "recipe": "basketcase:wicker_small_bark_birch"
      }
    }
  },
  "requirements": [
    [
      "has_item",
      "has_large_bark_birch_recipe",
      "has_medium_bark_birch_recipe",
      "has_small_bark_birch_recipe"
    ]
  ]
}


