{
  "parent": "minecraft:recipes/root",
  "rewards": {
    "recipes": [
      "basketcase:wicker_large_generic",
      "basketcase:wicker_medium_generic",
      "basketcase:wicker_small_generic"
    ]
  },
  "criteria": {
    "has_item1": {
      "trigger": "minecraft:inventory_changed",
      "conditions": {
        "items": [
          {
            "item": "primallib:bark_strips_generic"
          }
        ]
      }
    },
    "has_item2": {
      "trigger": "minecraft:inventory_changed",
      "conditions": {
        "items": [
          {
            "item": "primallib:twig_generic"
          }
        ]
      }
    },
    "has_wicker_large_generic_recipe": {
      "trigger": "minecraft:recipe_unlocked",
      "conditions": {
        "recipe": "basketcase:wicker_large_generic"
      }
    },
    "has_wicker_medium_generic_recipe": {
      "trigger": "minecraft:recipe_unlocked",
      "conditions": {
        "recipe": "basketcase:wicker_medium_generic"
      }
    },
    "has_wicker_small_generic_recipe": {
      "trigger": "minecraft:recipe_unlocked",
      "conditions": {
        "recipe": "basketcase:wicker_small_generic"
      }
    }
  },
  "requirements": [
    [
      "has_item1",
      "has_item2",
      "has_wicker_large_generic_recipe",
      "has_wicker_medium_generic_recipe",
      "has_wicker_small_generic_recipe"
    ]
  ]
}


