{
  "forge_marker": 1,
  "variants": {
    "normal": {
      "model": "basketcase:basket_small_bark_dark_oak"
    },
    "inventory": {
      "model": "basketcase:basket_small_bark_dark_oak",
      "transform": "forge:default-block"
    }
  }
}